…
Now I have a list of all the books in a similar dataframe format that I can bind together


```r
# bind all dataframes together
all_books <- all_books %>% reduce(rbind)

all_books
```

```
## # A tibble: 937,370 x 3
##    book               page word  
##    <chr>             <int> <chr> 
##  1 A Crown of Swords     1 crown 
##  2 A Crown of Swords     1 swords
##  3 A Crown of Swords     1 robert
##  4 A Crown of Swords     1 jordan
##  5 A Crown of Swords     2 health
##  6 A Crown of Swords     2 grown 
##  7 A Crown of Swords     2 land  
##  8 A Crown of Swords     2 dragon
##  9 A Crown of Swords     2 reborn
## 10 A Crown of Swords     2 land  
## # ... with 937,360 more rows
```
…
