…
Aruba has no data so we can just look at the US to make sure we brought in the data as expected.


```r
child_mort %>% filter(country_code == "USA")
```

```
## # A tibble: 60 x 4
##    country_name  country_code  year child_mortality
##    <chr>         <chr>        <int>           <dbl>
##  1 United States USA           1960            30.1
##  2 United States USA           1961            29.5
##  3 United States USA           1962            28.9
##  4 United States USA           1963            28.3
##  5 United States USA           1964            27.7
##  6 United States USA           1965            27.1
##  7 United States USA           1966            26.4
##  8 United States USA           1967            25.7
##  9 United States USA           1968            24.9
## 10 United States USA           1969            24.1
## # ... with 50 more rows
```
…
We have data for the past 19 years, let's see the max headcount recipient per year


```r
TAP %>% group_by(academic_year, tap_college_name, sector_type) %>% summarize(largest_headcount_by_year = max(headcount)) %>% arrange(desc(largest_headcount_by_year))
```

```
## `summarise()` has grouped output by 'academic_year', 'tap_college_name'. You can override using the `.groups` argument.
```

```
## # A tibble: 7,295 x 4
## # Groups:   academic_year, tap_college_name [7,295]
##    academic_year tap_college_name              sector_type largest_headcount_by~
##            <int> <chr>                         <chr>                       <int>
##  1          2015 CUNY MANHATTAN CC             PUBLIC                       9529
##  2          2017 CUNY MANHATTAN CC             PUBLIC                       9365
##  3          2016 CUNY MANHATTAN CC             PUBLIC                       9250
##  4          2014 CUNY MANHATTAN CC             PUBLIC                       8604
##  5          2018 CUNY MANHATTAN CC             PUBLIC                       8509
##  6          2005 SUNY BUFFALO 4 YR (UNDERGRAD) PUBLIC                       8405
##  7          2004 SUNY BUFFALO 4 YR (UNDERGRAD) PUBLIC                       8323
##  8          2006 SUNY BUFFALO 4 YR (UNDERGRAD) PUBLIC                       8273
##  9          2012 CUNY MANHATTAN CC             PUBLIC                       8139
## 10          2013 CUNY MANHATTAN CC             PUBLIC                       8116
## # ... with 7,285 more rows
```
…
