…
## Summary statistics

Just some quick stats


```r
movie_group <- sql_ratings %>% group_by(movie_name)
people_ratings <- sql_ratings %>% group_by(first_name)

mean_rating <- movie_group %>% summarise(avg_rating = mean(rating)) %>% arrange(avg_rating)
mean_rating
```

```
## # A tibble: 22 x 2
##    movie_name            avg_rating
##    <chr>                      <dbl>
##  1 "The Suicide Squad "        5.83
##  2 "Creed"                     6   
##  3 "The Lighthouse"            6.17
##  4 "Army of the Dead"          6.4 
##  5 "The Death of Stalin"       7   
##  6 "Perfect Blue"              7.17
##  7 "Midsommar"                 7.25
##  8 "Samsara"                   7.33
##  9 "Chappie"                   7.57
## 10 "Snowpiercer"               7.57
## # ... with 12 more rows
```
…
